Visualizing Big Data in R-Using Trelliscope
…
Scatter plots of bathrooms vs.bedrooms

bath contains the number of bathrooms in the home.

Take a look at the distinct values in bath using distinct().

# Look at the distinct values of the bath column
la_homes %>% distinct(bath)

## # A tibble: 28 x 1
##     bath
##    <dbl>
##  1   1  
##  2   2  
##  3   4  
##  4   3  
##  5   1.5
##  6   2.5
##  7   5  
##  8   7  
##  9   6  
## 10   9  
## # ... with 18 more rows
…
